Portfolio 8: Mental Health Workforce Access Across U.S. States
…
## Rows: 50
## Columns: 4
## $ state                  <chr> "AL", "AK", "AZ", "AR", "CA", "CO", "CT", "DE",…
## $ psychologists          <dbl> 982, 588, 5125, 877, 43112, 6855, 5317, 1160, 1…
## $ population             <dbl> 5157699, 740133, 7582384, 3088354, 39431263, 59…
## $ psychologists_per_100k <dbl> 19.03950, 79.44518, 67.59088, 28.39700, 109.334…

Check Cleaned Data

mental_health_state %>%
  arrange(desc(psychologists_per_100k)) %>%
  print(n = 10)

## # A tibble: 50 × 4
##    state psychologists population psychologists_per_100k
##    <chr>         <dbl>      <dbl>                  <dbl>
##  1 DC             1648     702250                   235.
##  2 CT             5317    3675069                   145.
##  3 MA            10273    7136171                   144.
##  4 NY            27701   19867248                   139.
##  5 RI             1385    1112308                   125.
##  6 VT              772     648493                   119.
##  7 CO             6855    5957493                   115.
##  8 DE             1160    1051917                   110.
##  9 CA            43112   39431263                   109.
## 10 MD             6505    6263220                   104.
## # ℹ 40 more rows

mental_health_state %>%
  arrange(psychologists_per_100k) %>%
  print(n = 10)

## # A tibble: 50 × 4
##    state psychologists population psychologists_per_100k
##    <chr>         <dbl>      <dbl>                  <dbl>
##  1 MS              426    2943045                   14.5
##  2 AL              982    5157699                   19.0
##  3 AR              877    3088354                   28.4
##  4 SC             1592    5478831                   29.1
##  5 LA             1692    4597740                   36.8
##  6 IA             1224    3241488                   37.8
##  7 IN             2676    6924275                   38.6
##  8 TX            13140   31290831                   42.0
##  9 NV             1465    3267467                   44.8
## 10 KY             2125    4588372                   46.3
## # ℹ 40 more rows
…
Overall, the histogram suggests that most states have moderate
psychologist availability, while a small number of states or areas have
much higher availability.

Check Outlier

mental_health_state %>%
  arrange(desc(psychologists_per_100k)) %>%
  select(state, psychologists, population, psychologists_per_100k) %>%
  print(n = 10)

## # A tibble: 50 × 4
##    state psychologists population psychologists_per_100k
##    <chr>         <dbl>      <dbl>                  <dbl>
##  1 DC             1648     702250                   235.
##  2 CT             5317    3675069                   145.
##  3 MA            10273    7136171                   144.
##  4 NY            27701   19867248                   139.
##  5 RI             1385    1112308                   125.
##  6 VT              772     648493                   119.
##  7 CO             6855    5957493                   115.
##  8 DE             1160    1051917                   110.
##  9 CA            43112   39431263                   109.
## 10 MD             6505    6263220                   104.
## # ℹ 40 more rows
…
