Portfolio 10: Creating Figures From Eye-Tracking Data for Poster Presentation
…
rt_cost_summary <- summary_se(
  data = rt_by_subject_block,
  value_col = rt_cost,
  group_cols = c("block_norm", "singleton_frequency")
)

rt_cost_summary

## # A tibble: 28 × 8
##    block_norm singleton_frequency  mean    sd     n    se lower upper
##         <dbl> <chr>               <dbl> <dbl> <int> <dbl> <dbl> <dbl>
##  1          1 High                 179.  131.    32  23.2 156.   202.
##  2          1 Low                  217.  169.    32  29.8 187.   247.
##  3          2 High                 148.  140.    32  24.7 123.   172.
##  4          2 Low                  196.  223.    31  40.0 156.   236.
##  5          3 High                 121.  137.    32  24.2  96.5  145.
##  6          3 Low                  174.  194.    32  34.3 140.   208.
##  7          4 High                 176.  106.    32  18.7 157.   195.
##  8          4 Low                  196.  155.    32  27.4 169.   223.
##  9          5 High                 140.  135.    32  23.9 116.   164.
## 10          5 Low                  185.  193.    32  34.1 151.   219.
## # ℹ 18 more rows
…
oculomotor_summary <- summary_se(
  data = oculomotor_by_subject_block,
  value_col = oculomotor_capture,
  group_cols = c("block_norm", "sing_prob")
)

oculomotor_summary

## # A tibble: 28 × 8
##    block_norm sing_prob  mean    sd     n    se lower upper
##         <dbl> <chr>     <dbl> <dbl> <int> <dbl> <dbl> <dbl>
##  1          1 High       56.1  25.3    32  4.48  51.6  60.6
##  2          1 Low        59.9  31.5    32  5.57  54.3  65.5
##  3          2 High       47.2  21.6    32  3.81  43.4  51.1
##  4          2 Low        47.8  28.3    31  5.08  42.8  52.9
##  5          3 High       38.3  17.3    32  3.05  35.3  41.4
##  6          3 Low        45.3  32.4    32  5.72  39.6  51.0
##  7          4 High       37.8  22.7    32  4.01  33.8  41.8
##  8          4 Low        44.8  30.6    32  5.41  39.4  50.2
##  9          5 High       32.1  21.7    32  3.84  28.2  35.9
## 10          5 Low        48.2  27.7    32  4.90  43.3  53.1
## # ℹ 18 more rows
…
dwell_summary <- summary_se(
  data = dwell_by_subject_block,
  value_col = dwell_time,
  group_cols = c("block_norm", "sing_prob")
)

dwell_summary

## # A tibble: 28 × 8
##    block_norm sing_prob  mean    sd     n    se lower upper
##         <dbl> <chr>     <dbl> <dbl> <int> <dbl> <dbl> <dbl>
##  1          1 High       190.  57.1    32 10.1   180.  200.
##  2          1 Low        214.  90.5    30 16.5   197.  230.
##  3          2 High       164.  46.7    31  8.38  156.  172.
##  4          2 Low        165.  43.0    29  7.98  157.  173.
##  5          3 High       167.  45.9    31  8.25  158.  175.
##  6          3 Low        172.  69.2    28 13.1   159.  185.
##  7          4 High       171.  41.8    30  7.63  164.  179.
##  8          4 Low        176.  80.1    24 16.4   160.  192.
##  9          5 High       155.  45.1    29  8.38  147.  164.
## 10          5 Low        156.  34.5    27  6.65  150.  163.
## # ℹ 18 more rows
…
